practice
…
5 Moderately Accurate

6 Very Accurate

3.1.3 tibble

bfi_a

bfi_a <- bfi %>%
  select(A1:A5,gender,education,age) %>% 
  as_tibble()

bfi_a

## # A tibble: 2,800 x 8
##       A1    A2    A3    A4    A5 gender education   age
##    <int> <int> <int> <int> <int>  <int>     <int> <int>
##  1     2     4     3     4     4      1        NA    16
##  2     2     4     5     2     5      2        NA    18
##  3     5     4     5     4     4      2        NA    17
##  4     4     4     6     5     5      2        NA    17
##  5     2     3     3     4     5      1        NA    17
##  6     6     6     5     6     5      2         3    21
##  7     2     5     5     3     5      1        NA    18
##  8     4     3     1     5     1      1         2    19
##  9     4     3     6     3     3      1         1    19
## 10     2     5     6     6     5      2        NA    17
## # ... with 2,790 more rows

3.1.4 

var_a <- c("A1","A5")

bfi_a %>% select(var_a)

## # A tibble: 2,800 x 2
##       A1    A5
##    <int> <int>
##  1     2     4
##  2     2     5
##  3     5     4
##  4     4     5
##  5     2     5
##  6     6     5
##  7     2     5
##  8     4     1
##  9     4     3
## 10     2     5
## # ... with 2,790 more rows

bfi_a %>% select(-one_of(var_a)) # var_a

## # A tibble: 2,800 x 6
##       A2    A3    A4 gender education   age
##    <int> <int> <int>  <int>     <int> <int>
##  1     4     3     4      1        NA    16
##  2     4     5     2      2        NA    18
##  3     4     5     4      2        NA    17
##  4     4     6     5      2        NA    17
##  5     3     3     4      1        NA    17
##  6     6     5     6      2         3    21
##  7     5     5     3      1        NA    18
##  8     3     1     5      1         2    19
##  9     3     6     3      1         1    19
## 10     5     6     6      2        NA    17
## # ... with 2,790 more rows

3.1.5 

bfi_a %>% 
  filter(A1 %in% c(1,2,3))

## # A tibble: 2,142 x 8
##       A1    A2    A3    A4    A5 gender education   age
##    <int> <int> <int> <int> <int>  <int>     <int> <int>
##  1     2     4     3     4     4      1        NA    16
##  2     2     4     5     2     5      2        NA    18
##  3     2     3     3     4     5      1        NA    17
##  4     2     5     5     3     5      1        NA    18
##  5     2     5     6     6     5      2        NA    17
##  6     2     5     5     5     5      1        NA    16
##  7     1     6     6     1     5      2        NA    17
##  8     1     5     6     5     6      1         5    68
##  9     2     6     5     6     5      2         2    27
## 10     1     6     6     1     6      2         3    20
## # ... with 2,132 more rows

bfi_a %>% 
  filter(!(A1 %in% c(1,2,3))) # A11-3 

## # A tibble: 658 x 8
##       A1    A2    A3    A4    A5 gender education   age
##    <int> <int> <int> <int> <int>  <int>     <int> <int>
##  1     5     4     5     4     4      2        NA    17
##  2     4     4     6     5     5      2        NA    17
##  3     6     6     5     6     5      2         3    21
##  4     4     3     1     5     1      1         2    19
##  5     4     3     6     3     3      1         1    19
##  6     4     4     5     6     5      1         1    21
##  7     5     5     5     6     4      2        NA    16
##  8     5     5     5     6     6      1        NA    16
##  9     4     5     2     2     1      1         1    17
## 10     4     3     6     6     3      1        NA    17
## # ... with 648 more rows
…
3.1.8 

bfi_a <- bfi_a %>% 
  mutate(A1r = recode(A1, `1` = 6, `2` = 5, `3` = 4, 
                          `4` = 3, `5` = 2, `6` = 1),
         total_a = A1r + A2 + A3 + A4 + A5)

# 
bfi_a %>%
  select(A1, A1r, A2:A5, total_a) 

## # A tibble: 2,800 x 7
##       A1   A1r    A2    A3    A4    A5 total_a
##    <int> <dbl> <int> <int> <int> <int>   <dbl>
##  1     2     5     4     3     4     4      20
##  2     2     5     4     5     2     5      21
##  3     5     2     4     5     4     4      19
##  4     4     3     4     6     5     5      23
##  5     2     5     3     3     4     5      20
##  6     6     1     6     5     6     5      23
##  7     2     5     5     5     3     5      23
##  8     4     3     3     1     5     1      13
##  9     4     3     3     6     3     3      18
## 10     2     5     5     6     6     5      27
## # ... with 2,790 more rows
…
names(bfi_a)

##  [1] "A1"        "A2"        "A3"        "A4"        "A5"        "gender"   
##  [7] "education" "age"       "A1r"       "total_a"

bfi_a <- 
bfi_a %>% 
  mutate(total_a2 = rowSums(.[c(2:5, 9)])) # na.rm = TRUENA0

# 
bfi_a %>%
  select(A1r, A2:A5, total_a, total_a2) 

## # A tibble: 2,800 x 7
##      A1r    A2    A3    A4    A5 total_a total_a2
##    <dbl> <int> <int> <int> <int>   <dbl>    <dbl>
##  1     5     4     3     4     4      20       20
##  2     5     4     5     2     5      21       21
##  3     2     4     5     4     4      19       19
##  4     3     4     6     5     5      23       23
##  5     5     3     3     4     5      20       20
##  6     1     6     5     6     5      23       23
##  7     5     5     5     3     5      23       23
##  8     3     3     1     5     1      13       13
##  9     3     3     6     3     3      18       18
## 10     5     5     6     6     5      27       27
## # ... with 2,790 more rows
…
## # A tibble: 2 x 2
##   education            n
##   <fct>            <int>
## 1 some college      1249
## 2 college graduate   394

3.1.11 

bfi_a %>%
  select(A1, A1r, A2:A5, total_a, total_a2) %>% 
  filter(is.na(total_a)) %>% 
  print(n = 10)

## # A tibble: 91 x 8
##       A1   A1r    A2    A3    A4    A5 total_a total_a2
##    <int> <dbl> <int> <int> <int> <int>   <dbl>    <dbl>
##  1     2     5    NA     4     6     4      NA       NA
##  2    NA    NA     4     5     6     4      NA       NA
##  3     4     3     5     4    NA     3      NA       NA
##  4     1     6     4    NA     6     6      NA       NA
##  5     1     6     5    NA     5     6      NA       NA
##  6     1     6    NA     4     6     5      NA       NA
##  7     1     6     5    NA     6     5      NA       NA
##  8     2     5    NA     5     5     2      NA       NA
##  9    NA    NA     5     4     3     4      NA       NA
## 10     2     5     4     4     6    NA      NA       NA
## # ... with 81 more rows
…
bfi_a <- 
bfi_a %>% 
  mutate(agec = case_when(
          age < 20              ~ "20", 
          age >= 20  & age < 30 ~ "30", 
          age >= 30  & age < 40 ~ "40",
          age >= 40  & age < 50 ~ "50",
          age >= 50  & age < 60 ~ "60",
          age >= 60             ~ "60"  
  ))

bfi_a %>% 
  count(age, agec)

## # A tibble: 64 x 3
##      age agec         n
##    <int> <chr>    <int>
##  1     3 20     1
##  2     9 20     1
##  3    11 20     3
##  4    12 20    28
##  5    13 20     7
##  6    14 20    21
##  7    15 20    26
##  8    16 20    61
##  9    17 20   100
## 10    18 20   124
## # ... with 54 more rows
…
bfi_am %>% 
  count(age, agec)

## # A tibble: 59 x 3
##      age agec         n
##    <int> <chr>    <int>
##  1    11 20     3
##  2    12 20    28
##  3    13 20     7
##  4    14 20    21
##  5    15 20    26
##  6    16 20    61
##  7    17 20   100
##  8    18 20   124
##  9    19 20   190
## 10    20 30   212
## # ... with 49 more rows
…
3.3 

3.3.1 id

bfi_a <- 
bfi_a %>% 
  mutate(id = row_number())

bfi_a <- 
bfi_a %>% select(id, everything()) 

bfi_a

## # A tibble: 2,800 x 13
##       id    A1    A2    A3    A4    A5 gender education   age   A1r total_a
##    <int> <int> <int> <int> <int> <int> <fct>  <fct>     <int> <dbl>   <dbl>
##  1     1     2     4     3     4     4 male   <NA>         16     5      20
##  2     2     2     4     5     2     5 female <NA>         18     5      21
##  3     3     5     4     5     4     4 female <NA>         17     2      19
##  4     4     4     4     6     5     5 female <NA>         17     3      23
##  5     5     2     3     3     4     5 male   <NA>         17     5      20
##  6     6     6     6     5     6     5 female some col~    21     1      23
##  7     7     2     5     5     3     5 male   <NA>         18     5      23
##  8     8     4     3     1     5     1 male   finished~    19     3      13
##  9     9     4     3     6     3     3 male   HS           19     3      18
## 10    10     2     5     6     6     5 female <NA>         17     5      27
## # ... with 2,790 more rows, and 2 more variables: total_a2 <dbl>, agec <chr>
…
nest

unnestcols = 

  bfi %>%
  nest(data = -c(gender, education)) %>% 
  mutate(freq =
           map(data, ~ tabyl(.x, A1))) %>% 
  select(-data) %>% 
  unnest(cols = c(freq)) %>% 
  drop_na(education) %>% 
  as_tibble()

## # A tibble: 65 x 6
##    gender education    A1     n percent valid_percent
##     <int>     <int> <int> <dbl>   <dbl>         <dbl>
##  1      2         3     1   345 0.386          0.389 
##  2      2         3     2   246 0.275          0.277 
##  3      2         3     3   104 0.116          0.117 
##  4      2         3     4   105 0.118          0.118 
##  5      2         3     5    67 0.0750         0.0755
##  6      2         3     6    20 0.0224         0.0225
##  7      2         3    NA     6 0.00672       NA     
##  8      1         2     1    22 0.214          0.216 
##  9      1         2     2    33 0.320          0.324 
## 10      1         2     3    10 0.0971         0.0980
## # ... with 55 more rows
…
# bfi_l <-
#   bfi %>%
#   as_tibble() %>%                    # tibble
#   select(gender,education,A1,A2) %>% # 
#   drop_na() %>%                      # 
#   gather(A1:A2,            # longA1:A2
#          key = variables,
#          value = score)    # key = value = 

bfi_l

## # A tibble: 5,076 x 4
##    gender education variables score
##     <int>     <int> <chr>     <int>
##  1      2         3 A1            6
##  2      2         3 A2            6
##  3      1         2 A1            4
##  4      1         2 A2            3
##  5      1         1 A1            4
##  6      1         1 A2            3
##  7      1         1 A1            4
##  8      1         1 A2            4
##  9      1         1 A1            4
## 10      1         1 A2            5
## # ... with 5,066 more rows
…
7.2.4 

freqscore, n, percent

bfi_l_unnest <-
bfi_l_nest %>%
  unnest(freq)

bfi_l_unnest

## # A tibble: 138 x 7
##    gender education variables data               score     n percent
##     <int>     <int> <chr>     <list>             <chr> <dbl>   <dbl>
##  1      2         3 A1        <tibble [877 x 1]> 1       340  0.388 
##  2      2         3 A1        <tibble [877 x 1]> 2       245  0.279 
##  3      2         3 A1        <tibble [877 x 1]> 3       103  0.117 
##  4      2         3 A1        <tibble [877 x 1]> 4       104  0.119 
##  5      2         3 A1        <tibble [877 x 1]> 5        65  0.0741
##  6      2         3 A1        <tibble [877 x 1]> 6        20  0.0228
##  7      2         3 A1        <tibble [877 x 1]> Total   877  1     
##  8      2         3 A2        <tibble [877 x 1]> 1         9  0.0103
##  9      2         3 A2        <tibble [877 x 1]> 2        21  0.0239
## 10      2         3 A2        <tibble [877 x 1]> 3        26  0.0296
## # ... with 128 more rows
…
